Uncontrolled rectifier (Capacitance analysis)

* OPTIONS
.option TEMP=27C
.option METHOD=GEAR


* CONTROL
.control
tran 50u 20m uic

option numdgt=4
wrdata data/03-ir1.csv -i(va)
wrdata data/03-ir2.csv -i(vb)
wrdata data/03-var.csv vr(var)
wrdata data/03-vab.csv vr(var)-v(vbr)
wrdata data/03-ir4.csv -i(v0)
wrdata data/03-vout.csv vr(op)

.endc

* END
.end
