* NETLIST
va a 0 dc 0 SIN(0 50 60 0 0 0.0)
vb b 0 dc 0 SIN(0 50 60 0 0 240.0)
vc c 0 dc 0 SIN(0 50 60 0 0 120.0)

r186062 a ar 0.1
r2 b br 0.1
r3 c cr 0.1

l1 ar var 100u
l2 br vbr 100u
l3 cr vcr 100u

d1 var d 1n4002
d2 vbr d 1n4002
d3 vcr d 1n4002

d4 on var 1n4002
d5 on vbr 1n4002
d6 on vcr 1n4002

r4 d e 10m
v0 op e dc 0

r5 op on 70

r6 on 0 10meg
