Shottky diode (1N5818)

* OPTIONS
.option TEMP=27C
.option METHOD=GEAR

.measure tran qrr INTEG i(vg) from=0.771u to=0.989u

* CONTROL
.control
tran 50n 2u 0 1n uic

option numdgt=4
wrdata data/01-vka.csv vr(vr)
wrdata data/01-vg.csv vr(vp)
wrdata data/01-ika.csv -i(vg)

.endc

* END
.end
