IGBT

* OPTIONS
.option TEMP=27C
.option METHOD=GEAR

* CONTROL
.control
alterparam CgVal = 20n
reset

tran 0.1u 50u 0 uic

option numdgt=4
wrdata data/02-v23.csv vr(vp)-vr(vn)
wrdata data/02-vz3.csv vr(vz)
wrdata data/02-vload3.csv vr(vload)
wrdata data/02-iload3.csv i(v1)

.endc

* END
.end
