DC-DC insulated conversor

* OPTIONS
.option TEMP=27C
.option METHOD=GEAR

* CONTROL
.control

alterparam K = 0.95

reset

tran 50n 2m uic

option numdgt=4
wrdata data/02-vo.csv vr(vp)-vr(vn)
wrdata data/02-vl1.csv vr(vpp)-vr(d)
wrdata data/02-il1.csv -i(vi)
wrdata data/02-il2.csv -i(v1)
wrdata data/02-vds.csv vr(d)

.endc

* END
.end
