.param K = 1

Vi vpp 0 dc 20
V2 1 0 dc 0 pulse(-15 15 0 100n 100n 20u 40u)
R2 1 g 2
X1 d g 0 irf150
R4 vn 0 10meg
L1 d vpp 10u
L2 vn 2 1m
V1 3 2 dc 0
D3 3 vp 1n4002
C1 vp 4 5u
R5 4 vn 100m
R1 vp vn 100
K1 L1 L2 K
