SCR controlled rectifier (input and ouput voltage/current)

* OPTIONS
.option TEMP=27C


* CONTROL
.control
tran 50u 201m uic

option numdgt=4
wrdata data/01-i_in.csv -i(vi)
wrdata data/01-v_in.csv vr(n6)-vr(vn)
wrdata data/01-i_out.csv -i(vo)
wrdata data/01-v_out.csv vr(n1)

let vo = vr(n1)
let io = -i(vo)
meas tran vo_med avg vo
meas tran io_med avg io

.endc

* END
.end
