SCR controlled rectifier (DC motor load)

* OPTIONS
.option TEMP=27C

* CONTROL
.control
tran 50u 300m uic

option numdgt=4
wrdata data/02-vi.csv vr(n6)-vr(vn)
wrdata data/02-ii.csv -i(vi)
wrdata data/02-vo.csv vr(n1)
wrdata data/02-io.csv -i(vo)
wrdata data/02-vco.csv vr(n3)

.endc

* END
.end
