* NETLIST
vi vp vn dc 0 SIN(0 40 50)
ri vp n6 0.1

x1 n6 n4 n1 scr
r1 n4 n5 100
vg1 n5 n1 dc 0 PULSE(0 5 5m 1u 1u 200u 20m)
rs1 n3 n1 1k
cs1 n6 n3 100n

x2 0 n9 n6 scr
r2 n9 n10 100
vg2 n10 n6 dc 0 PULSE(0 5 15m 1u 1u 200u 20m)
rs2 n8 n6 1k
cs2 0 n8 100n

d1 vn n1 1n4002
d2 0 vn 1n4002

lo n1 n2 100m
ro n3 n2 2
vo 0 n3 DC 0
