TRIAC

* OPTIONS
.option TEMP=27C
.option METHOD=GEAR

* CONTROL
.control
tran 50u 100m 0 100u

option numdgt=4
wrdata data/01-vc.csv vr(vp)-vr(va)
wrdata data/01-va.csv vr(va)
wrdata data/01-ia.csv -i(v1)
wrdata data/01-vg.csv vr(v2p)
wrdata data/01-ig.csv -i(v2)

.endc

* END
.end
