TRIAC - with snubber and L=30uH

* OPTIONS
.option TEMP=27C

* CONTROL
.control
tran 50u 100m uic

fourier 50 vr(vp)
fourier 50 -i(vi)

set wr_vecmame
option numdgt=4
wrdata data/03-vc.csv vr(vp)-vr(va)
wrdata data/03-va.csv vr(va)
wrdata data/03-ia.csv -i(v1)
wrdata data/03-vg.csv vr(v2p)
wrdata data/03-ig.csv -i(v2)

wrdata data/03-four-vi.csv fourier11
wrdata data/03-four-ii.csv fourier21

meas tran vi_rms rms vp
meas tran ii_rms rms i(vi)

let p_v = vp*(-i(vi))
let s = vi_rms * ii_rms
meas tran p_med avg p_v
print s
let pf = p_med/s
print pf

let vr = vr(v1p)-vr(va)
meas tran vr_rms rms vr

.endc

* END
.end
